{
  "data": {
    "items": {
      "item": [
        {
          "id": "32#1",
          "audio": "Grade_3_dissolve.mp3",
          "title": "Think Like a reader",
          "question": "Lorem Ipsum is simply dummy text of the printing and typesetting industry. It was popularised in the 1960s with the release of Letraset sheets containing Lorem Ipsum passages, and more recently with desktop publishing software like Aldus PageMaker including versions of Lorem Ipsum.",
          "draft": "Draft",
          "submit": "Submit",
          "savedasdraft": "true",
          "submitted": "true",
          "hasfeedback": "true"
        },
        {
          "id": "32#2",
          "audio": "page0017.mp3",
          "title": "title",
          "question": "question",
          "draft": "Draft",
          "submit": "Submit",
          "savedasdraft": "true",
          "submitted": "true",
          "hasfeedback": "true"
        },
        {
          "id": "32#3",
          "audio": "page0018.mp3",
          "title": "title",
          "question": "question",
          "draft": "Draft",
          "submit": "Submit",
          "savedasdraft": "true",
          "submitted": "true",
          "hasfeedback": "true"
        },
        {
          "id": "32#4",
          "audio": "page0019.mp3",
          "title": "title",
          "question": "question",
          "draft": "Draft",
          "submit": "Submit",
          "savedasdraft": "true",
          "submitted": "true",
          "hasfeedback": "true"
        },
        {
          "id": "32#5",
          "audio": "page0019.mp3",
          "title": "Title of the book",
          "question": "This is space for question",
          "draft": "Draft",
          "submit": "Submit",
          "savedasdraft": "true",
          "submitted": "true",
          "hasfeedback": "true"
        }
      ]
    }
  }
}